{
    "rate" : [
        {
            "weight_maxi" : 250,
            "price" : 12.43
        },
        {
            "weight_maxi" : 500,
            "price" : 12.43
        },
        {
            "weight_maxi" : 750,
            "price" : 15.42
        },
        {
            "weight_maxi" : 1000,
            "price" : 15.42
        },
        {
            "weight_maxi" : 2000,
            "price" : 20.77
        },
        {
            "weight_maxi" : 3000,
            "price" : 26.07
        },
        {
            "weight_maxi" : 4000,
            "price" : 31.43
        },
        {
            "weight_maxi" : 5000,
            "price" : 36.77
        },
        {
            "weight_maxi" : 6000,
            "price" : 42.13
        },
        {
            "weight_maxi" : 7000,
            "price" : 47.49
        },
        {
            "weight_maxi" : 8000,
            "price" : 52.83
        },
        {
            "weight_maxi" : 9000,
            "price" : 58.83
        },
        {
            "weight_maxi" : 10000,
            "price" : 63.54
        },
        {
            "weight_maxi" : 11000,
            "price" : 88.19
        },
        {
            "weight_maxi" : 12000,
            "price" : 88.19
        },
        {
            "weight_maxi" : 13000,
            "price" : 88.19
        },
        {
            "weight_maxi" : 14000,
            "price" : 88.19
        },
        {
            "weight_maxi" : 15000,
            "price" : 88.19
        }
    ]
}